Nicolas_Sayed/scratch/Test/UVM_TEST/d.vcd
$date
    Jan 31, 2025  16:04:48
$end
$version
    TOOL:	xmsim(64)	23.09-s006
$end
$timescale
    100 ps
$end

$scope module top $end
$var reg       1 !    i_clk $end

$scope module intf $end
$var wire      1 "    i_clk  $end
$var reg      32 #    i_pc [31:0] $end
$var reg      32 $    i_rs1 [31:0] $end
$var reg      32 %    i_rs2 [31:0] $end
$var reg      32 &    i_imm [31:0] $end
$var reg       1 '    load_upper_imm $end
$var reg       1 (    uncond_branch $end
$var reg       1 )    cond_branch $end
$var reg       1 *    mem $end
$var reg       1 +    alu_imm $end
$var reg       1 ,    alu_reg $end
$var reg       1 -    iop $end
$var reg       3 .    fcs_opcode [2:0] $end
$var reg       5 /    rd [4:0] $end
$var reg       1 0    o_pc_load $end
$var reg      32 1    o_pc_ext [31:0] $end
$var reg      32 2    o_memory_data [31:0] $end
$var reg      32 3    o_rd_output [31:0] $end
$upscope $end


$scope module dut $end
$var wire      1 "    i_clk  $end
$var wire     32 4    i_pc [31:0] $end
$var wire     32 5    i_rs1 [31:0] $end
$var wire     32 6    i_rs2 [31:0] $end
$var wire     32 7    i_imm [31:0] $end
$var reg       1 8    o_pc_load $end
$var reg      32 9    o_pc_ext [31:0] $end
$var reg      32 :    o_memory_data [31:0] $end
$var reg      32 ;    o_rd_output [31:0] $end
$var reg       1 <    r_pc_load $end
$var reg      32 =    r_pc_ext [31:0] $end
$var reg      32 >    r_memory_data [31:0] $end
$var reg      32 ?    r_rd_output [31:0] $end
$var wire     32 @    port2 [31:0] $end
$upscope $end

$upscope $end

$enddefinitions $end
$dumpvars
0!
0"
bx #
bx $
bx %
bx &
x'
x(
x)
x*
x+
x,
x-
bx .
bx /
x0
bx 1
bx 2
bx 3
bx 4
bx 5
bx 6
bx 7
x8
bx 9
bx :
bx ;
x<
bx =
bx >
bx ?
bx @
$end
#50
1!
1"
b111 #
b101110001000110111101000011000 $
b10000010001100011010110100110001 %
b10110110001101100110101100010100 &
0<
b0 =
b0 ?
08
b0 9
b0 ;
b10110110001101100110101100010100 7
b10000010001100011010110100110001 6
b101110001000110111101000011000 5
b111 4
b0 3
b0 1
00
b10110110001101100110101100010100 @
#100
0!
0"
#150
1!
1"
b1 #
b10101010011000100000010101011001 $
b11000001000101110101011100001001 %
b10100110000000101100110110001011 &
b10000010001100011010110100110001 >
b11100100010110011110010100101100 ?
b10000010001100011010110100110001 :
b11100100010110011110010100101100 ;
b10100110000000101100110110001011 7
b11000001000101110101011100001001 6
b10101010011000100000010101011001 5
b1 4
b11100100010110011110010100101100 3
b10000010001100011010110100110001 2
b10100110000000101100110110001011 @
#200
0!
0"
#250
1!
1"
b0 #
b11110011010000010100011101110 $
b11010011101100011010001000110010 %
b101111100000001111100000111011 &
b101 ?
b11000001000101110101011100001001 >
b10100110000000101100110110001100 =
1<
b101 ;
b11000001000101110101011100001001 :
b10100110000000101100110110001100 9
18
b101111100000001111100000111011 7
b11010011101100011010001000110010 6
b11110011010000010100011101110 5
b0 4
10
b10100110000000101100110110001100 1
b11000001000101110101011100001001 2
b101 3
b101111100000001111100000111011 @
#300
0!
0"
#350
1!
1"
b1100 #
b11110101110000110010101101111001 $
b11001000110001110111110001010 %
b1011000101000000010011101101111 &
0<
b0 =
b1001101111010010010000100101001 ?
b11010011101100011010001000110010 >
08
b0 9
b1001101111010010010000100101001 ;
b11010011101100011010001000110010 :
b1011000101000000010011101101111 7
b11001000110001110111110001010 6
b11110101110000110010101101111001 5
b1100 4
b11010011101100011010001000110010 2
b1001101111010010010000100101001 3
b0 1
00
b1011000101000000010011101101111 @
#400
0!
0"
#450
1!
1"
b111 #
b1000001001001000101000110011001 $
b1110001000110101000100000001011 %
b1011001111011000000101010100 &
b10010101101111001000000000000000 ?
b11001000110001110111110001010 >
b10010101101111001000000000000000 ;
b11001000110001110111110001010 :
b1011001111011000000101010100 7
b1110001000110101000100000001011 6
b1000001001001000101000110011001 5
b111 4
b11001000110001110111110001010 2
b10010101101111001000000000000000 3
b1011001111011000000101010100 @
#500
0!
0"
#550
1!
1"
b11 #
b1000111010110010000010111101001 $
b111001010010010001111001000100 %
b1100011110100101101110101010001 &
b1001100011000011101001011101101 ?
b1110001000110101000100000001011 >
b1001100011000011101001011101101 ;
b1110001000110101000100000001011 :
b1100011110100101101110101010001 7
b111001010010010001111001000100 6
b1000111010110010000010111101001 5
b11 4
b1110001000110101000100000001011 2
b1001100011000011101001011101101 3
b1100011110100101101110101010001 @
#600
0!
0"
#650
1!
1"
b1001 #
b11100110101011001001001101111101 $
b11001100101110101011011100000101 %
b1000010110010100011010011001001 &
b10101011001010111110001100111010 ?
b111001010010010001111001000100 >
b10101011001010111110001100111010 ;
b111001010010010001111001000100 :
b1000010110010100011010011001001 7
b11001100101110101011011100000101 6
b11100110101011001001001101111101 5
b1001 4
b111001010010010001111001000100 2
b10101011001010111110001100111010 3
b1000010110010100011010011001001 @
#700
0!
0"
#750
1!
1"
b110 #
b10011011011000101000100110011011 $
b11001000100010000100000011110011 %
b1101010110001011110001101110000 &
b101001011101101100100001000110 ?
b11001100101110101011011100000101 >
b101001011101101100100001000110 ;
b11001100101110101011011100000101 :
b1101010110001011110001101110000 7
b11001000100010000100000011110011 6
b10011011011000101000100110011011 5
b110 4
b11001100101110101011011100000101 2
b101001011101101100100001000110 3
b1101010110001011110001101110000 @
#800
0!
0"
#850
1!
1"
b11110000011100101100001111010110 $
b1101100110111111011101101010 %
b10010010010101100010111110011000 &
b0 ?
b11001000100010000100000011110011 >
b1101010110001011110001101110110 =
b0 ;
b11001000100010000100000011110011 :
b1101010110001011110001101110110 9
b10010010010101100010111110011000 7
b1101100110111111011101101010 6
b11110000011100101100001111010110 5
b1101010110001011110001101110110 1
b11001000100010000100000011110011 2
b0 3
b10010010010101100010111110011000 @
#900
0!
0"
#950
1!
1"
b111 #
b1010011011010101000010000011111 $
b1000101100110110000001001101010 %
b10101000000110111001111011001000 &
b10010010010101100010111110011110 =
b1101100110111111011101101010 >
b10010010010101100010111110011110 9
b1101100110111111011101101010 :
b10101000000110111001111011001000 7
b1000101100110110000001001101010 6
b1010011011010101000010000011111 5
b111 4
b1101100110111111011101101010 2
b10010010010101100010111110011110 1
b10101000000110111001111011001000 @
#1000
0!
0"
#1050
1!
1"
b1010 #
b1011011011011110100110110100001 $
b1011101011100110001000000011000 %
b11001100111010001010100011001010 &
b0 =
b1000101100110110000001001101010 >
b11111011011110111001111011011111 ?
b0 9
b1000101100110110000001001101010 :
b11111011011110111001111011011111 ;
b11001100111010001010100011001010 7
b1011101011100110001000000011000 6
b1011011011011110100110110100001 5
b1010 4
b11111011011110111001111011011111 3
b1000101100110110000001001101010 2
b0 1
b11001100111010001010100011001010 @
#1100
0!
0"
#1150
1!
1"
b0 #
b1000100000010010000001011110 $
b1010101001001000010000001110011 %
b101111010100110110011101 &
b101000010101111111011001101011 ?
b1011101011100110001000000011000 >
b101000010101111111011001101011 ;
b1011101011100110001000000011000 :
b101111010100110110011101 7
b1010101001001000010000001110011 6
b1000100000010010000001011110 5
b0 4
b1011101011100110001000000011000 2
b101000010101111111011001101011 3
b101111010100110110011101 @
#1200
0!
0"
#1250
1!
1"
b1000 #
b11001000001011010011111001000100 $
b11010110010100110101101101111101 %
b110010001110100001001011001001 &
b1001001111100110110111111011 ?
b1010101001001000010000001110011 >
b1001001111100110110111111011 ;
b1010101001001000010000001110011 :
b110010001110100001001011001001 7
b11010110010100110101101101111101 6
b11001000001011010011111001000100 5
b1000 4
b1010101001001000010000001110011 2
b1001001111100110110111111011 3
b110010001110100001001011001001 @
#1300
0!
0"
#1350
1!
1"
b11 #
b101100111001100110010101100011 $
b110111010110111001100100110101 %
b1110010101111100111001011000110 &
b11111010011001110101000100001101 ?
b11010110010100110101101101111101 >
b11111010011001110101000100001101 ;
b11010110010100110101101101111101 :
b1110010101111100111001011000110 7
b110111010110111001100100110101 6
b101100111001100110010101100011 5
b11 4
b11010110010100110101101101111101 2
b11111010011001110101000100001101 3
b1110010101111100111001011000110 @
#1400
0!
0"
#1450
1!
1"
b1111 #
b10011111100001110001001010010000 $
b10001011010011110010101101111000 %
b10100001011101111111010111001011 &
b111 ?
b110111010110111001100100110101 >
b1110010101111100111001011001000 =
1<
b111 ;
b110111010110111001100100110101 :
b1110010101111100111001011001000 9
18
b10100001011101111111010111001011 7
b10001011010011110010101101111000 6
b10011111100001110001001010010000 5
b1111 4
10
b1110010101111100111001011001000 1
b110111010110111001100100110101 2
b111 3
b10100001011101111111010111001011 @
#1500
0!
0"
#1550
1!
1"
b1101 #
b10110111001101001100100011110110 $
b10111111000110111100000001100111 %
b11011111001110010001001110100010 &
0<
b0 =
b10100001011101111111010111011010 ?
b10001011010011110010101101111000 >
08
b0 9
b10100001011101111111010111011010 ;
b10001011010011110010101101111000 :
b11011111001110010001001110100010 7
b10111111000110111100000001100111 6
b10110111001101001100100011110110 5
b1101 4
b10001011010011110010101101111000 2
b10100001011101111111010111011010 3
b0 1
00
b11011111001110010001001110100010 @
#1600
0!
0"
#1650
1!
1"
b1110 #
b1101111001111001100001101111011 $
b111100001011101000000111011110 %
b11100100011101100111011111011 &
b0 ?
b10111111000110111100000001100111 >
b11011111001110010001001110101110 =
b0 ;
b10111111000110111100000001100111 :
b11011111001110010001001110101110 9
b11100100011101100111011111011 7
b111100001011101000000111011110 6
b1101111001111001100001101111011 5
b1110 4
b11011111001110010001001110101110 1
b10111111000110111100000001100111 2
b0 3
b11100100011101100111011111011 @
#1700
0!
0"
#1750
1!
1"
b1 #
b11001100010100011100011100111001 $
b10011001000110100100011000000010 %
b1101000111011000010010100100101 &
b0 =
b111100001011101000000111011110 >
b1111111101111101100111111111011 ?
b0 9
b111100001011101000000111011110 :
b1111111101111101100111111111011 ;
b1101000111011000010010100100101 7
b10011001000110100100011000000010 6
b11001100010100011100011100111001 5
b1 4
b1111111101111101100111111111011 3
b111100001011101000000111011110 2
b0 1
b1101000111011000010010100100101 @
#1800
0!
0"
#1850
1!
1"
b110 #
b111100000000010001011000100000 $
b1111111100001000011010011010110 %
b10110010111100011001101110100111 &
b1101000111011000010010100100110 ?
b10011001000110100100011000000010 >
b1101000111011000010010100100110 ;
b10011001000110100100011000000010 :
b10110010111100011001101110100111 7
b1111111100001000011010011010110 6
b111100000000010001011000100000 5
b110 4
b10011001000110100100011000000010 2
b1101000111011000010010100100110 3
b10110010111100011001101110100111 @
#1900
0!
0"
#1950
1!
1"
b1101 #
b1010000101111010110111001000010 $
b1000101110001110010011001010111 %
b1011111111101010110011111010 &
b10110010111100011001101110101101 ?
b1111111100001000011010011010110 >
b10110010111100011001101110101101 ;
b1111111100001000011010011010110 :
b1011111111101010110011111010 7
b1000101110001110010011001010111 6
b1010000101111010110111001000010 5
b1101 4
b1111111100001000011010011010110 2
b10110010111100011001101110101101 3
b1011111111101010110011111010 @
#2000
0!
0"
#2050
1!
1"
b110 #
b1110011011000010100110001110000 $
b11111110111101010110110001100010 %
b1010011010000001110000101010110 &
b1011100101111000001101100111100 ?
b1000101110001110010011001010111 >
b1011100101111000001101100111100 ;
b1000101110001110010011001010111 :
b1000101110001110010011001010111 @
b1010011010000001110000101010110 7
b11111110111101010110110001100010 6
b1110011011000010100110001110000 5
b110 4
b1000101110001110010011001010111 2
b1011100101111000001101100111100 3
b11111110111101010110110001100010 @
#2100
0!
0"
#2150
1!
1"
b10 #
b111011000100100011001111011000 $
b10010111111111001011010100011011 %
b10101001100010101011000010000100 &
b10001101100101000010000000010010 ?
b11111110111101010110110001100010 >
b10001101100101000010000000010010 ;
b11111110111101010110110001100010 :
b1010011010000001110000101010110 @
b10101001100010101011000010000100 7
b10010111111111001011010100011011 6
b111011000100100011001111011000 5
b10 4
b11111110111101010110110001100010 2
b10001101100101000010000000010010 3
b10101001100010101011000010000100 @
#2200
0!
0"
#2250
1!
1"
b0 #
b10100111110100000010010001111010 $
b10000110111010000000010000000 %
b1110110111000001101010000011 &
b110 ?
b10010111111111001011010100011011 >
b10101001100010101011000010000110 =
1<
b110 ;
b10010111111111001011010100011011 :
b10101001100010101011000010000110 9
18
b1110110111000001101010000011 7
b10000110111010000000010000000 6
b10100111110100000010010001111010 5
b0 4
10
b10101001100010101011000010000110 1
b10010111111111001011010100011011 2
b110 3
b1110110111000001101010000011 @
#2300
0!
0"
#2350
1!
1"
b1111 #
b100010011101011001101100101001 $
b1111100101010001010000001110000 %
b1100010011000101010011110001010 &
0<
b0 =
b10110110101011000011111011111101 ?
b10000110111010000000010000000 >
08
b0 9
b10110110101011000011111011111101 ;
b10000110111010000000010000000 :
b1100010011000101010011110001010 7
b1111100101010001010000001110000 6
b100010011101011001101100101001 5
b1111 4
b10000110111010000000010000000 2
b10110110101011000011111011111101 3
b0 1
00
b1100010011000101010011110001010 @
#2400
0!
0"
#2450
1!
1"
b1 #
b1000010001010000001101100010010 $
b11001000010011010100001100001101 %
b11000100111100001100111101100011 &
b1 ?
b1111100101010001010000001110000 >
b1 ;
b1111100101010001010000001110000 :
b11000100111100001100111101100011 7
b11001000010011010100001100001101 6
b1000010001010000001101100010010 5
b1 4
b1111100101010001010000001110000 2
b1 3
b11000100111100001100111101100011 @
#2500
0!
0"
#2550
1!
1"
b101 #
b110111001111010010000110101 $
b11110011110010101110100001010111 %
b110110100001101001001000001101 &
b111000110001110101001110101 ?
b11001000010011010100001100001101 >
b111000110001110101001110101 ;
b11001000010011010100001100001101 :
b110110100001101001001000001101 7
b11110011110010101110100001010111 6
b110111001111010010000110101 5
b101 4
b11001000010011010100001100001101 2
b111000110001110101001110101 3
b110110100001101001001000001101 @
#2600
0!
0"
#2650
1!
1"
b1101 #
b1110000101101000011011010010011 $
b11111111001000011001000001001110 %
b10110111001000111110111110001000 &
b110000011000010011011000111000 ?
b11110011110010101110100001010111 >
b110000011000010011011000111000 ;
b11110011110010101110100001010111 :
b10110111001000111110111110001000 7
b11111111001000011001000001001110 6
b1110000101101000011011010010011 5
b1101 4
b11110011110010101110100001010111 2
b110000011000010011011000111000 3
b10110111001000111110111110001000 @
#2700
0!
0"
#2750
1!
1"
b101 #
b11101000011010000100111011111101 $
b11111101011000111000110011010000 %
b100101111101100111000000001100 &
b10110111001000111110111110010101 ?
b11111111001000011001000001001110 >
b10110111001000111110111110010101 ;
b11111111001000011001000001001110 :
b100101111101100111000000001100 7
b11111101011000111000110011010000 6
b11101000011010000100111011111101 5
b101 4
b11111111001000011001000001001110 2
b10110111001000111110111110010101 3
b100101111101100111000000001100 @
#2800
0!
0"
#2850
1!
1"
b1111 #
b1110010101101101011001010010000 $
b10000101001000111011010000000010 %
b10010010011100010001000011101001 &
b100101111101100111000000010001 ?
b11111101011000111000110011010000 >
b100101111101100111000000010001 ;
b11111101011000111000110011010000 :
b10010010011100010001000011101001 7
b10000101001000111011010000000010 6
b1110010101101101011001010010000 5
b1111 4
b11111101011000111000110011010000 2
b100101111101100111000000010001 3
b10010010011100010001000011101001 @
#2900
0!
0"
#2950
1!
1"
b1100 #
b101111110100100001100001010001 $
b10101100100001001101111110111000 %
b1111110111111100100110111111 &
b0 ?
b10000101001000111011010000000010 >
1<
b10010010011100010001000011111000 =
b0 ;
b10000101001000111011010000000010 :
18
b10010010011100010001000011111000 9
b1111110111111100100110111111 7
b10101100100001001101111110111000 6
b101111110100100001100001010001 5
b1100 4
b10010010011100010001000011111000 1
10
b10000101001000111011010000000010 2
b0 3
b1111110111111100100110111111 @
#3000
0!
0"
#3050
1!
1"
b100001110101000111001011000 $
b11110011111101110000110001000100 %
b10011010011010011010000000111111 &
b1111110111111100100111001010 =
b10101100100001001101111110111000 >
b1111110111111100100111001010 9
b10101100100001001101111110111000 :
b10101100100001001101111110111000 @
b10011010011010011010000000111111 7
b11110011111101110000110001000100 6
b100001110101000111001011000 5
b10101100100001001101111110111000 2
b1111110111111100100111001010 1
b11110011111101110000110001000100 @
#3100
0!
0"
#3150
1!
1"
b1101 #
b11100110100010101000101001101100 $
b101110010101001000110101011010 %
b10011001010001001100111000110 &
0<
b0 =
b11110011111101110000110001000100 >
b1100100000110001000000 ?
08
b0 9
b11110011111101110000110001000100 :
b1100100000110001000000 ;
b10011010011010011010000000111111 @
b10011001010001001100111000110 7
b101110010101001000110101011010 6
b11100110100010101000101001101100 5
b1101 4
b1100100000110001000000 3
b11110011111101110000110001000100 2
b0 1
00
b10011001010001001100111000110 @
#3200
0!
0"
#3250
1!
1"
b1 #
b10110100100110111001011 $
b10011110111001011110100100011010 %
b10101100010011101010100010011000 &
b0 ?
b101110010101001000110101011010 >
1<
b10011001010001001100111010010 =
b0 ;
b101110010101001000110101011010 :
18
b10011001010001001100111010010 9
b10101100010011101010100010011000 7
b10011110111001011110100100011010 6
b10110100100110111001011 5
b1 4
b10011001010001001100111010010 1
10
b101110010101001000110101011010 2
b0 3
b10101100010011101010100010011000 @
#3300
0!
0"
#3350
1!
1"
b101 #
b10010101100111101101100100100110 $
b10101100000001111100000101101000 %
b100010010010100101111111111010 &
0<
b0 =
b10011110111001011110100100011010 >
b10101100010011101010100010011001 ?
08
b0 9
b10011110111001011110100100011010 :
b10101100010011101010100010011001 ;
b100010010010100101111111111010 7
b10101100000001111100000101101000 6
b10010101100111101101100100100110 5
b101 4
b10101100010011101010100010011001 3
b10011110111001011110100100011010 2
b0 1
00
b100010010010100101111111111010 @
#3400
0!
0"
#3450
1!
1"
b1101 #
b1100010011000110010101111001011 $
b11101111010111010111010001100000 %
b10111000101011010010110010100110 &
b100010010010100101111111111111 ?
b10101100000001111100000101101000 >
b100010010010100101111111111111 ;
b10101100000001111100000101101000 :
b10111000101011010010110010100110 7
b11101111010111010111010001100000 6
b1100010011000110010101111001011 5
b1101 4
b10101100000001111100000101101000 2
b100010010010100101111111111111 3
b10111000101011010010110010100110 @
#3500
0!
0"
#3550
1!
1"
b111 #
b1000001110000011100100110011010 $
b10111100001100010101001000001000 %
b1001100101110000001100110101010 &
b0 ?
b11101111010111010111010001100000 >
b10111000101011010010110010110010 =
b0 ;
b11101111010111010111010001100000 :
b10111000101011010010110010110010 9
b1001100101110000001100110101010 7
b10111100001100010101001000001000 6
b1000001110000011100100110011010 5
b111 4
b10111000101011010010110010110010 1
b11101111010111010111010001100000 2
b0 3
b1001100101110000001100110101010 @
#3600
0!
0"
#3650
1!
1"
b11 #
b11000001011110101010101110000110 $
b11010010010010110101110000110111 %
b11100000010101111010010000110000 &
b0 =
b10111100001100010101001000001000 >
b1001100101110000001100110110001 ?
b0 9
b10111100001100010101001000001000 :
b1001100101110000001100110110001 ;
b11100000010101111010010000110000 7
b11010010010010110101110000110111 6
b11000001011110101010101110000110 5
b11 4
b1001100101110000001100110110001 3
b10111100001100010101001000001000 2
b0 1
b11100000010101111010010000110000 @
#3700
0!
0"
#3750
1!
1"
b11101010111100110101101111001001 $
b1011110110100010011111100111001 %
b10010010011100011100011011010111 &
b11100001011111111010111110110110 ?
b11010010010010110101110000110111 >
b11100001011111111010111110110110 ;
b11010010010010110101110000110111 :
b10010010011100011100011011010111 7
b1011110110100010011111100111001 6
b11101010111100110101101111001001 5
b11010010010010110101110000110111 2
b11100001011111111010111110110110 3
b10010010011100011100011011010111 @
#3800
0!
0"
#3850
1!
1"
b100010010100111001001000011001 $
b11011110010000100111011011000101 %
b110010110000010000110010000111 &
b10010010011100011100011011011010 ?
b1011110110100010011111100111001 >
b10010010011100011100011011011010 ;
b1011110110100010011111100111001 :
b1011110110100010011111100111001 @
b110010110000010000110010000111 7
b11011110010000100111011011000101 6
b100010010100111001001000011001 5
b1011110110100010011111100111001 2
b10010010011100011100011011011010 3
b11011110010000100111011011000101 @
#3900
0!
0"
#3950
1!
1"
b101 #
b11111010000011100000110010000110 $
b10100110111110011101101011011001 %
b11010010101001001110111110111000 &
b1 ?
b11011110010000100111011011000101 >
b1 ;
b11011110010000100111011011000101 :
b110010110000010000110010000111 @
b11010010101001001110111110111000 7
b10100110111110011101101011011001 6
b11111010000011100000110010000110 5
b101 4
b11011110010000100111011011000101 2
b1 3
b11010010101001001110111110111000 @
#4000
0!
0"
#4050
1!
1"
b1011 #
b1111011100010000101010101001010 $
b11100110000111010001011111000000 %
b10010001000000110110101100001010 &
b11001100101100101111110000111110 ?
b10100110111110011101101011011001 >
b11001100101100101111110000111110 ;
b10100110111110011101101011011001 :
b10010001000000110110101100001010 7
b11100110000111010001011111000000 6
b1111011100010000101010101001010 5
b1011 4
b10100110111110011101101011011001 2
b11001100101100101111110000111110 3
b10010001000000110110101100001010 @
#4100
0!
0"
#4150
1!
1"
b10 #
b1010111010100010010000011010 $
b11000001010111010100100110001 %
b111101100101110000100101100101 &
b1111 ?
b11100110000111010001011111000000 >
b10010001000000110110101100010100 =
1<
b1111 ;
b11100110000111010001011111000000 :
b10010001000000110110101100010100 9
18
b11100110000111010001011111000000 @
b111101100101110000100101100101 7
b11000001010111010100100110001 6
b1010111010100010010000011010 5
b10 4
10
b10010001000000110110101100010100 1
b11100110000111010001011111000000 2
b1111 3
b11000001010111010100100110001 @
#4200
0!
0"
#4250
1!
1"
b1011 #
b111010101001100011011100001000 $
b10010011100000000110011100101001 %
b11101001101111110100010101000001 &
0<
b0 =
b1 ?
b11000001010111010100100110001 >
08
b0 9
b1 ;
b11000001010111010100100110001 :
b111101100101110000100101100101 @
b11101001101111110100010101000001 7
b10010011100000000110011100101001 6
b111010101001100011011100001000 5
b1011 4
b11000001010111010100100110001 2
b1 3
b0 1
00
b11101001101111110100010101000001 @
#4300
0!
0"
#4350
1!
1"
b110 #
b10000001101011110101101000111100 $
b101110111001100010010111110111 %
b10100011000000101001111011000110 &
b100100011001010111110001001001 ?
b10010011100000000110011100101001 >
b100100011001010111110001001001 ;
b10010011100000000110011100101001 :
b10100011000000101001111011000110 7
b101110111001100010010111110111 6
b10000001101011110101101000111100 5
b110 4
b10010011100000000110011100101001 2
b100100011001010111110001001001 3
b10100011000000101001111011000110 @
#4400
0!
0"
#4450
1!
1"
b11 #
b1101001000100101100000110001101 $
b10011100100100001000101001101 %
b1011011110110101001010111001100 &
b10100011000000101001111011001100 ?
b101110111001100010010111110111 >
b10100011000000101001111011001100 ;
b101110111001100010010111110111 :
b1011011110110101001010111001100 7
b10011100100100001000101001101 6
b1101001000100101100000110001101 5
b11 4
b101110111001100010010111110111 2
b10100011000000101001111011001100 3
b1011011110110101001010111001100 @
#4500
0!
0"
#4550
1!
1"
b11110101100000110011001000011001 $
b11011000000101101111111101010000 %
b100011101110100010011110100100 &
b1011011110110101001010111001111 ?
b10011100100100001000101001101 >
b1011011110110101001010111001111 ;
b10011100100100001000101001101 :
b100011101110100010011110100100 7
b11011000000101101111111101010000 6
b11110101100000110011001000011001 5
b10011100100100001000101001101 2
b1011011110110101001010111001111 3
b100011101110100010011110100100 @
#4600
0!
0"
#4650
1!
1"
b101 #
b100010010011011110011011000010 $
b11100101111000100001100111011010 %
b11101011001011100101011011111101 &
b1011000001100110010000110010000 ?
b11011000000101101111111101010000 >
b1011000001100110010000110010000 ;
b11011000000101101111111101010000 :
b11101011001011100101011011111101 7
b11100101111000100001100111011010 6
b100010010011011110011011000010 5
b101 4
b11011000000101101111111101010000 2
b1011000001100110010000110010000 3
b11101011001011100101011011111101 @
#4700
0!
0"
#4750
1!
1"
b1010 #
b1100110011001011010101110110000 $
b10011101111100011010100111001 %
b10111111101111011010001111111110 &
b11101011001011100101011100000010 ?
b11100101111000100001100111011010 >
b11101011001011100101011100000010 ;
b11100101111000100001100111011010 :
b10111111101111011010001111111110 7
b10011101111100011010100111001 6
b1100110011001011010101110110000 5
b1010 4
b11100101111000100001100111011010 2
b11101011001011100101011100000010 3
b10111111101111011010001111111110 @
#4800
0!
0"
#4850
1!
1"
b1111 #
b10110011101100100011000110001111 $
b10011101111100101100111011111110 %
b1110011000011110001011010111000 &
b1110 ?
b10011101111100011010100111001 >
b10111111101111011010010000001000 =
1<
b1110 ;
b10011101111100011010100111001 :
b10111111101111011010010000001000 9
18
b1110011000011110001011010111000 7
b10011101111100101100111011111110 6
b10110011101100100011000110001111 5
b1111 4
10
b10111111101111011010010000001000 1
b10011101111100011010100111001 2
b1110 3
b1110011000011110001011010111000 @
#4900
0!
0"
#4950
1!
1"
b1000 #
b111101001100010100001111010101 $
b11110100111011100001100110010010 %
b1010110001110101001110000001100 &
0<
b0 =
b100110110000010100100001000111 ?
b10011101111100101100111011111110 >
08
b0 9
b100110110000010100100001000111 ;
b10011101111100101100111011111110 :
b1010110001110101001110000001100 7
b11110100111011100001100110010010 6
b111101001100010100001111010101 5
b1000 4
b10011101111100101100111011111110 2
b100110110000010100100001000111 3
b0 1
00
b1010110001110101001110000001100 @
#5000
0!
0"
#5050
1!
1"
b10 #
b11010100100101111101110000101000 $
b111110110101001011100010110001 %
b100111100110110100010001101001 &
b111101001100010100 ?
b11110100111011100001100110010010 >
b111101001100010100 ;
b11110100111011100001100110010010 :
b100111100110110100010001101001 7
b111110110101001011100010110001 6
b11010100100101111101110000101000 5
b10 4
b11110100111011100001100110010010 2
b111101001100010100 3
b100111100110110100010001101001 @
#5100
0!
0"
#5150
1!
1"
b1111 #
b10001000010110111110110110101 $
b1101000100101000101101001111101 %
b1000000000111000011110010111 &
b11111100001100110010000010010001 ?
b111110110101001011100010110001 >
b11111100001100110010000010010001 ;
b111110110101001011100010110001 :
b1000000000111000011110010111 7
b1101000100101000101101001111101 6
b10001000010110111110110110101 5
b1111 4
b111110110101001011100010110001 2
b11111100001100110010000010010001 3
b1000000000111000011110010111 @
#5200
0!
0"
#5250
1!
1"
b1110 #
b1100000000110010110101001101011 $
b11011110100100010011011111001 %
b11100110000100111110101100011110 &
b0 ?
b1101000100101000101101001111101 >
b1000000000111000011110100110 =
b0 ;
b1101000100101000101101001111101 :
b1000000000111000011110100110 9
b11100110000100111110101100011110 7
b11011110100100010011011111001 6
b1100000000110010110101001101011 5
b1110 4
b1000000000111000011110100110 1
b1101000100101000101101001111101 2
b0 3
b11100110000100111110101100011110 @
#5300
0!
0"
#5350
1!
1"
b0 #
b1010100001101000110000001011011 $
b10101110111010001111011000100001 %
b11010011001010111110100101110101 &
b0 =
b11011110100100010011011111001 >
b11100110000100111110101100101100 ?
b0 9
b11011110100100010011011111001 :
b11100110000100111110101100101100 ;
b11010011001010111110100101110101 7
b10101110111010001111011000100001 6
b1010100001101000110000001011011 5
b0 4
b11100110000100111110101100101100 3
b11011110100100010011011111001 2
b0 1
b11010011001010111110100101110101 @
#5400
0!
0"
#5450
1!
1"
b11 #
b11101000101010011001101001101001 $
b10001011010001011111000111010010 %
b10111111110110001000010101001111 &
b100111011000000100100111010000 ?
b10101110111010001111011000100001 >
b100111011000000100100111010000 ;
b10101110111010001111011000100001 :
b10111111110110001000010101001111 7
b10001011010001011111000111010010 6
b11101000101010011001101001101001 5
b11 4
b10101110111010001111011000100001 2
b100111011000000100100111010000 3
b10111111110110001000010101001111 @
#5500
0!
0"
#5550
1!
1"
b1000 #
b10001111101110010001111110100000 $
b11110001001000010001100000110010 %
b10101010001011010100000110000001 &
b10111111110110001000010101010010 ?
b10001011010001011111000111010010 >
b10111111110110001000010101010010 ;
b10001011010001011111000111010010 :
b10101010001011010100000110000001 7
b11110001001000010001100000110010 6
b10001111101110010001111110100000 5
b1000 4
b10001011010001011111000111010010 2
b10111111110110001000010101010010 3
b10101010001011010100000110000001 @
#5600
0!
0"
#5650
1!
1"
b0 #
b11010111001000101110100011110101 $
b10100000010000100110101100011010 %
b10010100000101101001101100110100 &
b1100 ?
b11110001001000010001100000110010 >
b10101010001011010100000110001000 =
1<
b1100 ;
b11110001001000010001100000110010 :
b10101010001011010100000110001000 9
18
b11110001001000010001100000110010 @
b10010100000101101001101100110100 7
b10100000010000100110101100011010 6
b11010111001000101110100011110101 5
b0 4
10
b10101010001011010100000110001000 1
b11110001001000010001100000110010 2
b1100 3
b10100000010000100110101100011010 @
#5700
0!
0"
#5750
1!
1"
b1010 #
b11000011100110011011101110000011 $
b101111001111001100000010101111 %
b10001101000001111000111110111000 &
0<
b0 =
b11010100000000000000000000000000 ?
b10100000010000100110101100011010 >
08
b0 9
b11010100000000000000000000000000 ;
b10100000010000100110101100011010 :
b10010100000101101001101100110100 @
b10001101000001111000111110111000 7
b101111001111001100000010101111 6
b11000011100110011011101110000011 5
b1010 4
b10100000010000100110101100011010 2
b11010100000000000000000000000000 3
b0 1
00
b10001101000001111000111110111000 @
#5800
0!
0"
#5850
1!
1"
b101 #
b11000010101010101101100100111011 $
b1000111101101010100000011110100 %
b10000011101000001010010010010101 &
b1010000101000010100101100111011 ?
b101111001111001100000010101111 >
b1010000101000010100101100111011 ;
b101111001111001100000010101111 :
b10000011101000001010010010010101 7
b1000111101101010100000011110100 6
b11000010101010101101100100111011 5
b101 4
b101111001111001100000010101111 2
b1010000101000010100101100111011 3
b10000011101000001010010010010101 @
#5900
0!
0"
#5950
1!
1"
b100 #
b1100110110010010000000000101101 $
b1000000000001101100001111100110 %
b10001001010000010101010001000100 &
b10000011101000001010010010011010 ?
b1000111101101010100000011110100 >
b10000011101000001010010010011010 ;
b1000111101101010100000011110100 :
b10001001010000010101010001000100 7
b1000000000001101100001111100110 6
b1100110110010010000000000101101 5
b100 4
b1000111101101010100000011110100 2
b10000011101000001010010010011010 3
b10001001010000010101010001000100 @
#6000
0!
0"
