RAPID-X Core/vivado-project/rapid-x/rapid-x.sim/sim_1/behav/xsim/decoder_tb_evan.vcd
$date
   Tue Apr  8 14:00:00 2025
$end

$version
  2024.2.0
  $dumpfile ("decoder_tb_evan.vcd") 
$end

$timescale
  1ps
$end

$scope module decoder_tb_evan $end
$var reg 1 ! i_clk $end
$var reg 1 " i_reset $end
$var reg 1 # i_pc_load $end
$var reg 32 $ i_instruction [31:0] $end
$var reg 32 % i_pc [31:0] $end
$var reg 32 & o_pc [31:0] $end
$var reg 352 ' o_control_signal $end
$var reg 32 ( o_imm [31:0] $end
$var reg 32 ) failed_tests $end
$scope module dut $end
$var wire 1 * i_clk $end
$var wire 1 + i_reset $end
$var wire 1 , i_pc_load $end
$var wire 32 - i_instruction [31:0] $end
$var wire 32 . i_pc [31:0] $end
$var reg 32 & o_pc [31:0] $end
$var reg 352 ' o_control_signal $end
$var reg 32 ( o_imm [31:0] $end
$var reg 32 / iv_pc [31:0] $end
$var reg 32 0 iv_instruction [31:0] $end
$var reg 1 1 is_lui $end
$var reg 1 2 is_aupic $end
$var reg 1 3 is_jal $end
$var reg 1 4 is_jalr $end
$var reg 1 5 is_cond $end
$var reg 1 6 is_load $end
$var reg 1 7 is_store $end
$var reg 1 8 is_imm $end
$var reg 1 9 is_reg $end
$var reg 1 : is_sra $end
$var reg 1 ; is_add $end
$var reg 32 < i_type [31:0] $end
$var reg 32 = j_type [31:0] $end
$var reg 32 > u_type [31:0] $end
$var reg 32 ? b_type [31:0] $end
$var reg 32 @ s_type [31:0] $end
$var reg 352 A xilinx_isim_temp_1_ln69_blkAssignCaching $end
$var reg 352 B xilinx_isim_temp_0_ln69_blkAssignCaching $end
$var wire 1 C is_valid $end
$upscope $end
$scope begin Block345_8 $end
$var reg 32 D i [31:0] $end
$upscope $end
$scope task apply_and_check $end
$var reg 32 E instr [31:0] $end
$var reg 1 F expected_load_upper_imm $end
$var reg 1 G expected_uncond_branch $end
$var reg 1 H expected_cond_branch $end
$var reg 1 I expected_mem $end
$var reg 1 J expected_alu_imm $end
$var reg 1 K expected_alu_reg $end
$var reg 1 L expected_iop $end
$var reg 1 M success $end
$upscope $end
$upscope $end
$enddefinitions $end

#0
$dumpvars
0!
1"
0#
b0 $
b0 %
b0 &
bx0xxxxxxxxxxxxxxxxxxxxxxxxxxxxxxx0xxxxxxxxxxxxxxxxxxxxxxxxxxxxxxx0xxxxxxxxxxxxxxxxxxxxxxxxxxxxxxx0xxxxxxxxxxxxxxxxxxxxxxxxxxxxxxx0xxxxxxxxxxxxxxxxxxxxxxxxxxxxxxx0xxxxxxxxxxxxxxxxxxxxxxxxxxxxxxx000000000000000000000000000000000000000000000000000000000000000000000000000000000000000000000000000000000000000000000000000000000 '
b0 (
b0 )
0*
1+
0,
b0 -
b0 .
b0 /
b0 0
01
02
03
04
05
06
07
08
09
0:
1;
b0 <
b0 =
b0 >
b0 ?
b0 @
bx00000000000000000000000000000000000000000000000000000000000000000000000000000000000000000000000000000000000000000000000000000000 A
bx0xxxxxxxxxxxxxxxxxxxxxxxxxxxxxxx0xxxxxxxxxxxxxxxxxxxxxxxxxxxxxxx0xxxxxxxxxxxxxxxxxxxxxxxxxxxxxxx0xxxxxxxxxxxxxxxxxxxxxxxxxxxxxxx0xxxxxxxxxxxxxxxxxxxxxxxxxxxxxxx0xxxxxxxxxxxxxxxxxxxxxxxxxxxxxxx000000000000000000000000000000000000000000000000000000000000000000000000000000000000000000000000000000000000000000000000000000000 B
0C
b0 D
bx E
0F
0G
0H
0I
0J
0K
0L
0M
$end

#5000
1!
0"
b10110111 $
bx1xxxxxxxxxxxxxxxxxxxxxxxxxxxxxxx0xxxxxxxxxxxxxxxxxxxxxxxxxxxxxxx0xxxxxxxxxxxxxxxxxxxxxxxxxxxxxxx0xxxxxxxxxxxxxxxxxxxxxxxxxxxxxxx0xxxxxxxxxxxxxxxxxxxxxxxxxxxxxxx0xxxxxxxxxxxxxxxxxxxxxxxxxxxxxxx100000000000000000000000000000000000000000000000000000000000000000000000000000000000000000000000000000000000000000000000000000001 '
1*
0+
b10110111 -
b10110111 0
11
b100000000000 ?
b1 @
bx0xxxxxxxxxxxxxxxxxxxxxxxxxxxxxxx0xxxxxxxxxxxxxxxxxxxxxxxxxxxxxxx0xxxxxxxxxxxxxxxxxxxxxxxxxxxxxxx0xxxxxxxxxxxxxxxxxxxxxxxxxxxxxxx0xxxxxxxxxxxxxxxxxxxxxxxxxxxxxxx0xxxxxxxxxxxxxxxxxxxxxxxxxxxxxxx000000000000000000000000000000000000000000000000000000000000000000000000000000000000000000000000000000000000000000000000000000001 A
bx1xxxxxxxxxxxxxxxxxxxxxxxxxxxxxxx0xxxxxxxxxxxxxxxxxxxxxxxxxxxxxxx0xxxxxxxxxxxxxxxxxxxxxxxxxxxxxxx0xxxxxxxxxxxxxxxxxxxxxxxxxxxxxxx0xxxxxxxxxxxxxxxxxxxxxxxxxxxxxxx0xxxxxxxxxxxxxxxxxxxxxxxxxxxxxxx000000000000000000000000000000000000000000000000000000000000000000000000000000000000000000000000000000000000000000000000000000001 B
1C
b10110111 E
1F
1L

#10000
0!
0*

#15000
1!
b100000000000110110111 $
bx1xxxxxxxxxxxxxxxxxxxxxxxxxxxxxxx0xxxxxxxxxxxxxxxxxxxxxxxxxxxxxxx0xxxxxxxxxxxxxxxxxxxxxxxxxxxxxxx0xxxxxxxxxxxxxxxxxxxxxxxxxxxxxxx0xxxxxxxxxxxxxxxxxxxxxxxxxxxxxxx0xxxxxxxxxxxxxxxxxxxxxxxxxxxxxxx100000000000000000000000000000000000000000000000000000000000000000000000000000000000000000000000100000000000000000000000000000011 '
b100000000000000000000 (
1*
b100000000000110110111 -
b100000000000110110111 0
b1 <
b100000000000000000000 >
b100000000010 ?
b11 @
bx1xxxxxxxxxxxxxxxxxxxxxxxxxxxxxxx0xxxxxxxxxxxxxxxxxxxxxxxxxxxxxxx0xxxxxxxxxxxxxxxxxxxxxxxxxxxxxxx0xxxxxxxxxxxxxxxxxxxxxxxxxxxxxxx0xxxxxxxxxxxxxxxxxxxxxxxxxxxxxxx0xxxxxxxxxxxxxxxxxxxxxxxxxxxxxxx100000000000000000000000000000000000000000000000000000000000000000000000000000000000000000000000100000000000000000000000000000011 A
b100000000000110110111 E
1M

#20000
0!
0*

#25000
1!
b111100000000001000110111 $
bx1xxxxxxxxxxxxxxxxxxxxxxxxxxxxxxx0xxxxxxxxxxxxxxxxxxxxxxxxxxxxxxx0xxxxxxxxxxxxxxxxxxxxxxxxxxxxxxx0xxxxxxxxxxxxxxxxxxxxxxxxxxxxxxx0xxxxxxxxxxxxxxxxxxxxxxxxxxxxxxx0xxxxxxxxxxxxxxxxxxxxxxxxxxxxxxx100000000000000000000000000000000000000000000000000000000000000000000000000000000000000000000111100000000000000000000000000000100 '
b111100000000000000000000 (
1*
b111100000000001000110111 -
b111100000000001000110111 0
b1111 <
b1110 =
b111100000000000000000000 >
b100 ?
b100 @
bx1xxxxxxxxxxxxxxxxxxxxxxxxxxxxxxx0xxxxxxxxxxxxxxxxxxxxxxxxxxxxxxx0xxxxxxxxxxxxxxxxxxxxxxxxxxxxxxx0xxxxxxxxxxxxxxxxxxxxxxxxxxxxxxx0xxxxxxxxxxxxxxxxxxxxxxxxxxxxxxx0xxxxxxxxxxxxxxxxxxxxxxxxxxxxxxx100000000000000000000000000000000000000000000000000000000000000000000000000000000000000000000111100000000000000000000000000000100 A
b111100000000001000110111 E

#30000
0!
0*

#35000
1!
b10010111 $
bx1xxxxxxxxxxxxxxxxxxxxxxxxxxxxxxx0xxxxxxxxxxxxxxxxxxxxxxxxxxxxxxx0xxxxxxxxxxxxxxxxxxxxxxxxxxxxxxx0xxxxxxxxxxxxxxxxxxxxxxxxxxxxxxx0xxxxxxxxxxxxxxxxxxxxxxxxxxxxxxx0xxxxxxxxxxxxxxxxxxxxxxxxxxxxxxx000000000000000000000000000000000000000000000000000000000000000000000000000000000000000000000000000000000000000000000000000000001 '
b0 (
1*
b10010111 -
b10010111 0
01
12
b0 <
b0 =
b0 >
b100000000000 ?
b1 @
bx1xxxxxxxxxxxxxxxxxxxxxxxxxxxxxxx0xxxxxxxxxxxxxxxxxxxxxxxxxxxxxxx0xxxxxxxxxxxxxxxxxxxxxxxxxxxxxxx0xxxxxxxxxxxxxxxxxxxxxxxxxxxxxxx0xxxxxxxxxxxxxxxxxxxxxxxxxxxxxxx0xxxxxxxxxxxxxxxxxxxxxxxxxxxxxxx100000000000000000000000000000000000000000000000000000000000000000000000000000000000000000000000000000000000000000000000000000001 A
bx1xxxxxxxxxxxxxxxxxxxxxxxxxxxxxxx0xxxxxxxxxxxxxxxxxxxxxxxxxxxxxxx0xxxxxxxxxxxxxxxxxxxxxxxxxxxxxxx0xxxxxxxxxxxxxxxxxxxxxxxxxxxxxxx0xxxxxxxxxxxxxxxxxxxxxxxxxxxxxxx0xxxxxxxxxxxxxxxxxxxxxxxxxxxxxxx100000000000000000000000000000000000000000000000000000000000000000000000000000000000000000000000000000000000000000000000000000001 B
b10010111 E
0L

#40000
0!
0*

#45000
1!
b100000000000110010111 $
bx1xxxxxxxxxxxxxxxxxxxxxxxxxxxxxxx0xxxxxxxxxxxxxxxxxxxxxxxxxxxxxxx0xxxxxxxxxxxxxxxxxxxxxxxxxxxxxxx0xxxxxxxxxxxxxxxxxxxxxxxxxxxxxxx0xxxxxxxxxxxxxxxxxxxxxxxxxxxxxxx0xxxxxxxxxxxxxxxxxxxxxxxxxxxxxxx000000000000000000000000000000000000000000000000000000000000000000000000000000000000000000000000100000000000000000000000000000011 '
b100000000000000000000 (
1*
b100000000000110010111 -
b100000000000110010111 0
b1 <
b100000000000000000000 >
b100000000010 ?
b11 @
bx1xxxxxxxxxxxxxxxxxxxxxxxxxxxxxxx0xxxxxxxxxxxxxxxxxxxxxxxxxxxxxxx0xxxxxxxxxxxxxxxxxxxxxxxxxxxxxxx0xxxxxxxxxxxxxxxxxxxxxxxxxxxxxxx0xxxxxxxxxxxxxxxxxxxxxxxxxxxxxxx0xxxxxxxxxxxxxxxxxxxxxxxxxxxxxxx000000000000000000000000000000000000000000000000000000000000000000000000000000000000000000000000100000000000000000000000000000011 A
b100000000000110010111 E

#50000
0!
0*

#55000
1!
b111100000000001000010111 $
bx1xxxxxxxxxxxxxxxxxxxxxxxxxxxxxxx0xxxxxxxxxxxxxxxxxxxxxxxxxxxxxxx0xxxxxxxxxxxxxxxxxxxxxxxxxxxxxxx0xxxxxxxxxxxxxxxxxxxxxxxxxxxxxxx0xxxxxxxxxxxxxxxxxxxxxxxxxxxxxxx0xxxxxxxxxxxxxxxxxxxxxxxxxxxxxxx000000000000000000000000000000000000000000000000000000000000000000000000000000000000000000000111100000000000000000000000000000100 '
b111100000000000000000000 (
1*
b111100000000001000010111 -
b111100000000001000010111 0
b1111 <
b1110 =
b111100000000000000000000 >
b100 ?
b100 @
bx1xxxxxxxxxxxxxxxxxxxxxxxxxxxxxxx0xxxxxxxxxxxxxxxxxxxxxxxxxxxxxxx0xxxxxxxxxxxxxxxxxxxxxxxxxxxxxxx0xxxxxxxxxxxxxxxxxxxxxxxxxxxxxxx0xxxxxxxxxxxxxxxxxxxxxxxxxxxxxxx0xxxxxxxxxxxxxxxxxxxxxxxxxxxxxxx000000000000000000000000000000000000000000000000000000000000000000000000000000000000000000000111100000000000000000000000000000100 A
b111100000000001000010111 E

#60000
0!
0*

#65000
1!
b100000000000110101111 $
bx0xxxxxxxxxxxxxxxxxxxxxxxxxxxxxxx0xxxxxxxxxxxxxxxxxxxxxxxxxxxxxxx0xxxxxxxxxxxxxxxxxxxxxxxxxxxxxxx0xxxxxxxxxxxxxxxxxxxxxxxxxxxxxxx0xxxxxxxxxxxxxxxxxxxxxxxxxxxxxxx0xxxxxxxxxxxxxxxxxxxxxxxxxxxxxxx000000000000000000000000000000000000000000000000000000000000000000000000000000000000000000000000100000000000000000000000000000011 '
b100000000010 (
1*
b100000000000110101111 -
b100000000000110101111 0
02
b1 <
b0 =
b100000000000000000000 >
b100000000010 ?
b11 @
bx1xxxxxxxxxxxxxxxxxxxxxxxxxxxxxxx0xxxxxxxxxxxxxxxxxxxxxxxxxxxxxxx0xxxxxxxxxxxxxxxxxxxxxxxxxxxxxxx0xxxxxxxxxxxxxxxxxxxxxxxxxxxxxxx0xxxxxxxxxxxxxxxxxxxxxxxxxxxxxxx0xxxxxxxxxxxxxxxxxxxxxxxxxxxxxxx000000000000000000000000000000000000000000000000000000000000000000000000000000000000000000000000100000000000000000000000000000011 A
bx0xxxxxxxxxxxxxxxxxxxxxxxxxxxxxxx0xxxxxxxxxxxxxxxxxxxxxxxxxxxxxxx0xxxxxxxxxxxxxxxxxxxxxxxxxxxxxxx0xxxxxxxxxxxxxxxxxxxxxxxxxxxxxxx0xxxxxxxxxxxxxxxxxxxxxxxxxxxxxxx0xxxxxxxxxxxxxxxxxxxxxxxxxxxxxxx000000000000000000000000000000000000000000000000000000000000000000000000000000000000000000000000100000000000000000000000000000011 B
b100000000000110101111 E
0F
1G

#70000
0!
0*

#75000
1!
b100000000010001010101111 $
bx0xxxxxxxxxxxxxxxxxxxxxxxxxxxxxxx0xxxxxxxxxxxxxxxxxxxxxxxxxxxxxxx0xxxxxxxxxxxxxxxxxxxxxxxxxxxxxxx0xxxxxxxxxxxxxxxxxxxxxxxxxxxxxxx0xxxxxxxxxxxxxxxxxxxxxxxxxxxxxxx0xxxxxxxxxxxxxxxxxxxxxxxxxxxxxxx000000000000000000000000000000010000000000000000000000000000000000000000000000000000000000000100000000000000000000000000000000101 '
b100000000100 (
1*
b100000000010001010101111 -
b100000000010001010101111 0
0;
b1000 <
b1000000001000 =
b100000000010000000000000 >
b100000000100 ?
b101 @
bx0xxxxxxxxxxxxxxxxxxxxxxxxxxxxxxx0xxxxxxxxxxxxxxxxxxxxxxxxxxxxxxx0xxxxxxxxxxxxxxxxxxxxxxxxxxxxxxx0xxxxxxxxxxxxxxxxxxxxxxxxxxxxxxx0xxxxxxxxxxxxxxxxxxxxxxxxxxxxxxx0xxxxxxxxxxxxxxxxxxxxxxxxxxxxxxx000000000000000000000000000000010000000000000000000000000000000000000000000000000000000000000100000000000000000000000000000000101 A
b100000000010001010101111 E
0M

#80000
0!
0*

#85000
1!
b11111111111111111111000110101111 $
bx0xxxxxxxxxxxxxxxxxxxxxxxxxxxxxxx0xxxxxxxxxxxxxxxxxxxxxxxxxxxxxxx0xxxxxxxxxxxxxxxxxxxxxxxxxxxxxxx0xxxxxxxxxxxxxxxxxxxxxxxxxxxxxxx0xxxxxxxxxxxxxxxxxxxxxxxxxxxxxxx0xxxxxxxxxxxxxxxxxxxxxxxxxxxxxxx000000000000000000000000000000111000000000000000000000000000111110000000000000000000000000001111100000000000000000000000000000011 '
b11111111111111111111111111100010 (
1*
b11111111111111111111000110101111 -
b11111111111111111111000110101111 0
b11111111111111111111111111111111 <
b11111111111111111111111111111110 =
b11111111111111111111000000000000 >
b11111111111111111111111111100010 ?
b11111111111111111111111111100011 @
bx0xxxxxxxxxxxxxxxxxxxxxxxxxxxxxxx0xxxxxxxxxxxxxxxxxxxxxxxxxxxxxxx0xxxxxxxxxxxxxxxxxxxxxxxxxxxxxxx0xxxxxxxxxxxxxxxxxxxxxxxxxxxxxxx0xxxxxxxxxxxxxxxxxxxxxxxxxxxxxxx0xxxxxxxxxxxxxxxxxxxxxxxxxxxxxxx000000000000000000000000000000111000000000000000000000000000111110000000000000000000000000001111100000000000000000000000000000011 A
b11111111111111111111000110101111 E
0M

#90000
0!
0*

#95000
1!
b10000010000000110001111 $
bx0xxxxxxxxxxxxxxxxxxxxxxxxxxxxxxx0xxxxxxxxxxxxxxxxxxxxxxxxxxxxxxx0xxxxxxxxxxxxxxxxxxxxxxxxxxxxxxx0xxxxxxxxxxxxxxxxxxxxxxxxxxxxxxx0xxxxxxxxxxxxxxxxxxxxxxxxxxxxxxx0xxxxxxxxxxxxxxxxxxxxxxxxxxxxxxx000000000000000000000000000000000000000000000000000000000000000100000000000000000000000000000010000000000000000000000000000000011 '
b100000000010 (
1*
b10000010000000110001111 -
b10000010000000110001111 0
1;
b100 <
b1000000000000100 =
b10000010000000000000000 >
b100000000010 ?
b11 @
bx0xxxxxxxxxxxxxxxxxxxxxxxxxxxxxxx0xxxxxxxxxxxxxxxxxxxxxxxxxxxxxxx0xxxxxxxxxxxxxxxxxxxxxxxxxxxxxxx0xxxxxxxxxxxxxxxxxxxxxxxxxxxxxxx0xxxxxxxxxxxxxxxxxxxxxxxxxxxxxxx0xxxxxxxxxxxxxxxxxxxxxxxxxxxxxxx000000000000000000000000000000000000000000000000000000000000000100000000000000000000000000000010000000000000000000000000000000011 A
b10000010000000110001111 E
0G
1J
1L
0M

#100000
0!
0*

#105000
1!
b100000110000001010001111 $
bx0xxxxxxxxxxxxxxxxxxxxxxxxxxxxxxx0xxxxxxxxxxxxxxxxxxxxxxxxxxxxxxx0xxxxxxxxxxxxxxxxxxxxxxxxxxxxxxx0xxxxxxxxxxxxxxxxxxxxxxxxxxxxxxx0xxxxxxxxxxxxxxxxxxxxxxxxxxxxxxx0xxxxxxxxxxxxxxxxxxxxxxxxxxxxxxx000000000000000000000000000000000000000000000000000000000000001100000000000000000000000000000100000000000000000000000000000000101 '
b100000000100 (
1*
b100000110000001010001111 -
b100000110000001010001111 0
b1000 <
b11000000000001000 =
b100000110000000000000000 >
b100000000100 ?
b101 @
bx0xxxxxxxxxxxxxxxxxxxxxxxxxxxxxxx0xxxxxxxxxxxxxxxxxxxxxxxxxxxxxxx0xxxxxxxxxxxxxxxxxxxxxxxxxxxxxxx0xxxxxxxxxxxxxxxxxxxxxxxxxxxxxxx0xxxxxxxxxxxxxxxxxxxxxxxxxxxxxxx0xxxxxxxxxxxxxxxxxxxxxxxxxxxxxxx000000000000000000000000000000000000000000000000000000000000001100000000000000000000000000000100000000000000000000000000000000101 A
b100000110000001010001111 E
0M

#110000
0!
0*

#115000
1!
b11111111111100100000000110001111 $
bx0xxxxxxxxxxxxxxxxxxxxxxxxxxxxxxx0xxxxxxxxxxxxxxxxxxxxxxxxxxxxxxx0xxxxxxxxxxxxxxxxxxxxxxxxxxxxxxx0xxxxxxxxxxxxxxxxxxxxxxxxxxxxxxx0xxxxxxxxxxxxxxxxxxxxxxxxxxxxxxx0xxxxxxxxxxxxxxxxxxxxxxxxxxxxxxx000000000000000000000000000000000000000000000000000000000000001000000000000000000000000000001111100000000000000000000000000000011 '
b11111111111111111111111111100010 (
1*
b11111111111100100000000110001111 -
b11111111111100100000000110001111 0
b11111111111111111111111111111111 <
b11111111111110010000011111111110 =
b11111111111100100000000000000000 >
b11111111111111111111111111100010 ?
b11111111111111111111111111100011 @
bx0xxxxxxxxxxxxxxxxxxxxxxxxxxxxxxx0xxxxxxxxxxxxxxxxxxxxxxxxxxxxxxx0xxxxxxxxxxxxxxxxxxxxxxxxxxxxxxx0xxxxxxxxxxxxxxxxxxxxxxxxxxxxxxx0xxxxxxxxxxxxxxxxxxxxxxxxxxxxxxx0xxxxxxxxxxxxxxxxxxxxxxxxxxxxxxx000000000000000000000000000000000000000000000000000000000000001000000000000000000000000000001111100000000000000000000000000000011 A
b11111111111100100000000110001111 E
0M

#120000
0!
0*

#125000
1!
b1100010000000101100011 $
bx0xxxxxxxxxxxxxxxxxxxxxxxxxxxxxxx0xxxxxxxxxxxxxxxxxxxxxxxxxxxxxxx1xxxxxxxxxxxxxxxxxxxxxxxxxxxxxxx0xxxxxxxxxxxxxxxxxxxxxxxxxxxxxxx0xxxxxxxxxxxxxxxxxxxxxxxxxxxxxxx0xxxxxxxxxxxxxxxxxxxxxxxxxxxxxxx000000000000000000000000000000000000000000000000000000000000000100000000000000000000000000000001100000000000000000000000000000000 '
b10 (
1*
b1100010000000101100011 -
b1100010000000101100011 0
15
b11 <
b1000000000000010 =
b1100010000000000000000 >
b10 ?
b10 @
bx0xxxxxxxxxxxxxxxxxxxxxxxxxxxxxxx0xxxxxxxxxxxxxxxxxxxxxxxxxxxxxxx0xxxxxxxxxxxxxxxxxxxxxxxxxxxxxxx0xxxxxxxxxxxxxxxxxxxxxxxxxxxxxxx0xxxxxxxxxxxxxxxxxxxxxxxxxxxxxxx0xxxxxxxxxxxxxxxxxxxxxxxxxxxxxxx000000000000000000000000000000000000000000000000000000000000000100000000000000000000000000000001100000000000000000000000000000000 A
bx0xxxxxxxxxxxxxxxxxxxxxxxxxxxxxxx0xxxxxxxxxxxxxxxxxxxxxxxxxxxxxxx1xxxxxxxxxxxxxxxxxxxxxxxxxxxxxxx0xxxxxxxxxxxxxxxxxxxxxxxxxxxxxxx0xxxxxxxxxxxxxxxxxxxxxxxxxxxxxxx0xxxxxxxxxxxxxxxxxxxxxxxxxxxxxxx000000000000000000000000000000000000000000000000000000000000000100000000000000000000000000000001100000000000000000000000000000000 B
b1100010000000101100011 E
1H
0J
0L
0M

#130000
0!
0*

#135000
1!
b10100100000001001100011 $
bx0xxxxxxxxxxxxxxxxxxxxxxxxxxxxxxx0xxxxxxxxxxxxxxxxxxxxxxxxxxxxxxx1xxxxxxxxxxxxxxxxxxxxxxxxxxxxxxx0xxxxxxxxxxxxxxxxxxxxxxxxxxxxxxx0xxxxxxxxxxxxxxxxxxxxxxxxxxxxxxx0xxxxxxxxxxxxxxxxxxxxxxxxxxxxxxx000000000000000000000000000000000000000000000000000000000000001000000000000000000000000000000010100000000000000000000000000000000 '
b100 (
1*
b10100100000001001100011 -
b10100100000001001100011 0
b101 <
b10000000000000100 =
b10100100000000000000000 >
b100 ?
b100 @
bx0xxxxxxxxxxxxxxxxxxxxxxxxxxxxxxx0xxxxxxxxxxxxxxxxxxxxxxxxxxxxxxx1xxxxxxxxxxxxxxxxxxxxxxxxxxxxxxx0xxxxxxxxxxxxxxxxxxxxxxxxxxxxxxx0xxxxxxxxxxxxxxxxxxxxxxxxxxxxxxx0xxxxxxxxxxxxxxxxxxxxxxxxxxxxxxx000000000000000000000000000000000000000000000000000000000000001000000000000000000000000000000010100000000000000000000000000000000 A
b10100100000001001100011 E
1M

#140000
0!
0*

#145000
1!
b11111110011100110000001101100011 $
bx0xxxxxxxxxxxxxxxxxxxxxxxxxxxxxxx0xxxxxxxxxxxxxxxxxxxxxxxxxxxxxxx1xxxxxxxxxxxxxxxxxxxxxxxxxxxxxxx0xxxxxxxxxxxxxxxxxxxxxxxxxxxxxxx0xxxxxxxxxxxxxxxxxxxxxxxxxxxxxxx0xxxxxxxxxxxxxxxxxxxxxxxxxxxxxxx000000000000000000000000000000000000000000000000000000000000001100000000000000000000000000000011100000000000000000000000000000000 '
b11111111111111111111011111100110 (
1*
b11111110011100110000001101100011 -
b11111110011100110000001101100011 0
b11111111111111111111111111100111 <
b11111111111110011000011111100110 =
b11111110011100110000000000000000 >
b11111111111111111111011111100110 ?
b11111111111111111111111111100110 @
bx0xxxxxxxxxxxxxxxxxxxxxxxxxxxxxxx0xxxxxxxxxxxxxxxxxxxxxxxxxxxxxxx1xxxxxxxxxxxxxxxxxxxxxxxxxxxxxxx0xxxxxxxxxxxxxxxxxxxxxxxxxxxxxxx0xxxxxxxxxxxxxxxxxxxxxxxxxxxxxxx0xxxxxxxxxxxxxxxxxxxxxxxxxxxxxxx000000000000000000000000000000000000000000000000000000000000001100000000000000000000000000000011100000000000000000000000000000000 A
b11111110011100110000001101100011 E

#150000
0!
0*

#155000
1!
b1100010001000101100011 $
bx0xxxxxxxxxxxxxxxxxxxxxxxxxxxxxxx0xxxxxxxxxxxxxxxxxxxxxxxxxxxxxxx1xxxxxxxxxxxxxxxxxxxxxxxxxxxxxxx0xxxxxxxxxxxxxxxxxxxxxxxxxxxxxxx0xxxxxxxxxxxxxxxxxxxxxxxxxxxxxxx0xxxxxxxxxxxxxxxxxxxxxxxxxxxxxxx000000000000000000000000000000001000000000000000000000000000000100000000000000000000000000000001100000000000000000000000000000000 '
b10 (
1*
b1100010001000101100011 -
b1100010001000101100011 0
0;
b11 <
b1000100000000010 =
b1100010001000000000000 >
b10 ?
b10 @
bx0xxxxxxxxxxxxxxxxxxxxxxxxxxxxxxx0xxxxxxxxxxxxxxxxxxxxxxxxxxxxxxx1xxxxxxxxxxxxxxxxxxxxxxxxxxxxxxx0xxxxxxxxxxxxxxxxxxxxxxxxxxxxxxx0xxxxxxxxxxxxxxxxxxxxxxxxxxxxxxx0xxxxxxxxxxxxxxxxxxxxxxxxxxxxxxx000000000000000000000000000000001000000000000000000000000000000100000000000000000000000000000001100000000000000000000000000000000 A
b1100010001000101100011 E

#160000
0!
0*

#165000
1!
b10100100001001001100011 $
bx0xxxxxxxxxxxxxxxxxxxxxxxxxxxxxxx0xxxxxxxxxxxxxxxxxxxxxxxxxxxxxxx1xxxxxxxxxxxxxxxxxxxxxxxxxxxxxxx0xxxxxxxxxxxxxxxxxxxxxxxxxxxxxxx0xxxxxxxxxxxxxxxxxxxxxxxxxxxxxxx0xxxxxxxxxxxxxxxxxxxxxxxxxxxxxxx000000000000000000000000000000001000000000000000000000000000001000000000000000000000000000000010100000000000000000000000000000000 '
b100 (
1*
b10100100001001001100011 -
b10100100001001001100011 0
b101 <
b10000100000000100 =
b10100100001000000000000 >
b100 ?
b100 @
bx0xxxxxxxxxxxxxxxxxxxxxxxxxxxxxxx0xxxxxxxxxxxxxxxxxxxxxxxxxxxxxxx1xxxxxxxxxxxxxxxxxxxxxxxxxxxxxxx0xxxxxxxxxxxxxxxxxxxxxxxxxxxxxxx0xxxxxxxxxxxxxxxxxxxxxxxxxxxxxxx0xxxxxxxxxxxxxxxxxxxxxxxxxxxxxxx000000000000000000000000000000001000000000000000000000000000001000000000000000000000000000000010100000000000000000000000000000000 A
b10100100001001001100011 E

#170000
0!
0*

#175000
1!
b11111110011100110001001101100011 $
bx0xxxxxxxxxxxxxxxxxxxxxxxxxxxxxxx0xxxxxxxxxxxxxxxxxxxxxxxxxxxxxxx1xxxxxxxxxxxxxxxxxxxxxxxxxxxxxxx0xxxxxxxxxxxxxxxxxxxxxxxxxxxxxxx0xxxxxxxxxxxxxxxxxxxxxxxxxxxxxxx0xxxxxxxxxxxxxxxxxxxxxxxxxxxxxxx000000000000000000000000000000001000000000000000000000000000001100000000000000000000000000000011100000000000000000000000000000000 '
b11111111111111111111011111100110 (
1*
b11111110011100110001001101100011 -
b11111110011100110001001101100011 0
b11111111111111111111111111100111 <
b11111111111110011000111111100110 =
b11111110011100110001000000000000 >
b11111111111111111111011111100110 ?
b11111111111111111111111111100110 @
bx0xxxxxxxxxxxxxxxxxxxxxxxxxxxxxxx0xxxxxxxxxxxxxxxxxxxxxxxxxxxxxxx1xxxxxxxxxxxxxxxxxxxxxxxxxxxxxxx0xxxxxxxxxxxxxxxxxxxxxxxxxxxxxxx0xxxxxxxxxxxxxxxxxxxxxxxxxxxxxxx0xxxxxxxxxxxxxxxxxxxxxxxxxxxxxxx000000000000000000000000000000001000000000000000000000000000001100000000000000000000000000000011100000000000000000000000000000000 A
b11111110011100110001001101100011 E

#180000
0!
0*

#185000
1!
b1100010100000101100011 $
bx0xxxxxxxxxxxxxxxxxxxxxxxxxxxxxxx0xxxxxxxxxxxxxxxxxxxxxxxxxxxxxxx1xxxxxxxxxxxxxxxxxxxxxxxxxxxxxxx0xxxxxxxxxxxxxxxxxxxxxxxxxxxxxxx0xxxxxxxxxxxxxxxxxxxxxxxxxxxxxxx0xxxxxxxxxxxxxxxxxxxxxxxxxxxxxxx000000000000000000000000000000100000000000000000000000000000000100000000000000000000000000000001100000000000000000000000000000000 '
b10 (
1*
b1100010100000101100011 -
b1100010100000101100011 0
b11 <
b1010000000000010 =
b1100010100000000000000 >
b10 ?
b10 @
bx0xxxxxxxxxxxxxxxxxxxxxxxxxxxxxxx0xxxxxxxxxxxxxxxxxxxxxxxxxxxxxxx1xxxxxxxxxxxxxxxxxxxxxxxxxxxxxxx0xxxxxxxxxxxxxxxxxxxxxxxxxxxxxxx0xxxxxxxxxxxxxxxxxxxxxxxxxxxxxxx0xxxxxxxxxxxxxxxxxxxxxxxxxxxxxxx000000000000000000000000000000100000000000000000000000000000000100000000000000000000000000000001100000000000000000000000000000000 A
b1100010100000101100011 E

#190000
0!
0*

#195000
1!
b10100100100001001100011 $
bx0xxxxxxxxxxxxxxxxxxxxxxxxxxxxxxx0xxxxxxxxxxxxxxxxxxxxxxxxxxxxxxx1xxxxxxxxxxxxxxxxxxxxxxxxxxxxxxx0xxxxxxxxxxxxxxxxxxxxxxxxxxxxxxx0xxxxxxxxxxxxxxxxxxxxxxxxxxxxxxx0xxxxxxxxxxxxxxxxxxxxxxxxxxxxxxx000000000000000000000000000000100000000000000000000000000000001000000000000000000000000000000010100000000000000000000000000000000 '
b100 (
1*
b10100100100001001100011 -
b10100100100001001100011 0
b101 <
b10010000000000100 =
b10100100100000000000000 >
b100 ?
b100 @
bx0xxxxxxxxxxxxxxxxxxxxxxxxxxxxxxx0xxxxxxxxxxxxxxxxxxxxxxxxxxxxxxx1xxxxxxxxxxxxxxxxxxxxxxxxxxxxxxx0xxxxxxxxxxxxxxxxxxxxxxxxxxxxxxx0xxxxxxxxxxxxxxxxxxxxxxxxxxxxxxx0xxxxxxxxxxxxxxxxxxxxxxxxxxxxxxx000000000000000000000000000000100000000000000000000000000000001000000000000000000000000000000010100000000000000000000000000000000 A
b10100100100001001100011 E

#200000
0!
0*

